Project 1: Exploratory Data Analysis
…
Summary Statistics Table

alldata %>% select_if(is.numeric) %>% summarize_all(c("mean", 
    "sd", "min", "max", "quantile", "n_distinct", "var"), na.rm = T) %>% 
    pivot_longer(contains("_"), names_to = "stats1", values_to = "values") %>% 
    separate(stats1, into = c("data", "stats")) %>% arrange(data) %>% 
    distinct()

## # A tibble: 55 x 3
##    data     stats    values
##    <chr>    <chr>     <dbl>
##  1 cumcases mean       59.0
##  2 cumcases sd         36.9
##  3 cumcases min         1  
##  4 cumcases max       127  
##  5 cumcases quantile    1  
##  6 cumcases n         127  
##  7 cumcases var      1360. 
##  8 cumcases quantile   27  
##  9 cumcases quantile   57.5
## 10 cumcases quantile   89.8
## # … with 45 more rows
…
alldata <- alldata %>% mutate(majorcity = recode(phregion, `1` = "Lubbock", 
    `2` = "Arlington", `3` = "Arlington", `4` = "Tyler", `5` = "Houston", 
    `6` = "Houston", `7` = "Temple", `8` = "San Antonio", `9` = "El Paso", 
    `10` = "El Paso", `11` = "Harlingen"))

Summary Statistics Tables Grouped by Setting

alldata %>% group_by(setting) %>% filter(setting == "Rural") %>% 
    select_if(is.numeric) %>% summarize_all(c("mean", "sd", "min", 
    "max", "quantile", "n_distinct", "var"), na.rm = T) %>% pivot_longer(contains("_"), 
    names_to = "stats1", values_to = "values") %>% separate(stats1, 
    into = c("data", "stats")) %>% arrange(data) %>% distinct()

## # A tibble: 55 x 4
## # Groups:   setting [1]
##    setting data     stats    values
##    <fct>   <chr>    <chr>     <dbl>
##  1 Rural   cumcases mean       56.3
##  2 Rural   cumcases sd         35.7
##  3 Rural   cumcases min         1  
##  4 Rural   cumcases max       125  
##  5 Rural   cumcases quantile    1  
##  6 Rural   cumcases n          70  
##  7 Rural   cumcases var      1273. 
##  8 Rural   cumcases quantile   27  
##  9 Rural   cumcases quantile   52  
## 10 Rural   cumcases quantile   87.2
## # … with 45 more rows

alldata %>% group_by(setting) %>% filter(setting == "Urban") %>% 
    select_if(is.numeric) %>% summarize_all(c("mean", "sd", "min", 
    "max", "quantile", "n_distinct", "var"), na.rm = T) %>% pivot_longer(contains("_"), 
    names_to = "stats1", values_to = "values") %>% separate(stats1, 
    into = c("data", "stats")) %>% arrange(data) %>% distinct()

## # A tibble: 55 x 4
## # Groups:   setting [1]
##    setting data     stats    values
##    <fct>   <chr>    <chr>     <dbl>
##  1 Urban   cumcases mean       64.7
##  2 Urban   cumcases sd         38.9
##  3 Urban   cumcases min         1  
##  4 Urban   cumcases max       127  
##  5 Urban   cumcases quantile    1  
##  6 Urban   cumcases n          76  
##  7 Urban   cumcases var      1511. 
##  8 Urban   cumcases quantile   30.2
##  9 Urban   cumcases quantile   65.5
## 10 Urban   cumcases quantile   99.8
## # … with 45 more rows

Summary Statistics Table Grouped by Setting and Public Health Region

alldata %>% group_by(setting, phregion) %>% select_if(is.numeric) %>% 
    summarize_all(c("mean", "sd", "min", "max", "quantile", "n_distinct", 
        "var"), na.rm = T) %>% pivot_longer(contains("_"), names_to = "stats1", 
    values_to = "values") %>% separate(stats1, into = c("data", 
    "stats")) %>% arrange(data) %>% distinct()

## # A tibble: 1,198 x 5
## # Groups:   setting, phregion [22]
##    setting phregion data     stats    values
##    <fct>   <fct>    <chr>    <chr>     <dbl>
##  1 Rural   1        cumcases mean       55.2
##  2 Rural   1        cumcases sd         39.3
##  3 Rural   1        cumcases min         1  
##  4 Rural   1        cumcases max       123  
##  5 Rural   1        cumcases quantile    1  
##  6 Rural   1        cumcases n          18  
##  7 Rural   1        cumcases var      1541. 
##  8 Rural   1        cumcases quantile   24  
##  9 Rural   1        cumcases quantile   59  
## 10 Rural   1        cumcases quantile   94  
## # … with 1,188 more rows
…
